Network Lab Solution Sheet.
Part I

Question	Answer
1 (3 pts)	----------------------------------------------------------（3）

2 (5 pts)    ----------------------------------------------------------（5）

3 (4 pts)    ----------------------------------------------------------（4）

4 (2 pts)	----------------------------------------------------------（2）

5 (2 pts)	----------------------------------------------------------（2）

6(2 pts)	----------------------------------------------------------（2）

7 (6 pts)	The RTT, round trip time, of 3-4 packets traveling from their computer to the server/website cci.drexel.edu and back.(4pts)---------------------（4）
It means it took less than (most likely 1 or 10) milliseconds for network packets to travel from their computer to cci.drexel.edu(2pts)  ---------------------（1）
	

8 (3 pts)    1s=1000ms----------------------------------------------------------（0）

9 (2 pts)    ----------------------------------------------------------（2）

10 (2 pts)  ----------------------------------------------------------（2）

11 (2 pts)  ----------------------------------------------------------（2）

12 (3 pts)	----------------------------------------------------------（3）

13 (4 pts)  ----------------------------------------------------------（4）

14 (2 pts)	----------------------------------------------------------（2）

15 (3 pts)	----------------------------------------------------------（3）

part I total=41

Part II

Question	Answer
1 (5 pts)	----------------------------------------------------------（5）

2 (4 pts)	----------------------------------------------------------（4）

3 (3 pts)	----------------------------------------------------------（3）

4 (3 pts)	----------------------------------------------------------（3）

5 (4 pts)	128.119.245.12----------------------------------------------------------（0）

6 (6 pts)    ----------------------------------------------------------（6）

part II total=21


total =part I+part II=62
